Projetos/trab19-2/v_mico.vcd
$date
  Thu Dec  5 17:54:37 2019
$end
$version
  GHDL v0
$end
$timescale
  1 fs
$end
$scope module standard $end
$upscope $end
$scope module std_logic_1164 $end
$upscope $end
$scope module numeric_std $end
$upscope $end
$scope module textio $end
$upscope $end
$scope module p_wires $end
$upscope $end
$scope module tb_mico $end
$var reg 1 ! clk $end
$var reg 1 " rst $end
$scope module u_mico $end
$var reg 1 # rst $end
$var reg 1 $ clk $end
$var reg 2 % selc[1:0] $end
$var reg 1 & selbeta $end
$var reg 1 ' wr_display $end
$var reg 1 ( wr_reg $end
$var reg 1 ) is_mem $end
$var reg 1 * mem_sel $end
$var reg 1 + mem_wr $end
$var reg 32 , instr[31:0] $end
$var reg 32 - a[31:0] $end
$var reg 32 . b[31:0] $end
$var reg 32 / c[31:0] $end
$var reg 32 0 beta[31:0] $end
$var reg 32 1 extended[31:0] $end
$var reg 32 2 ula_d[31:0] $end
$var reg 32 3 mem_d[31:0] $end
$comment this is not handled $end
$var reg 16 4 const[15:0] $end
$var reg 16 5 ip[15:0] $end
$var reg 16 6 ip_mais1[15:0] $end
$var reg 16 7 ext_zeros[15:0] $end
$var reg 16 8 ext_sinal[15:0] $end
$var reg 4 9 opcode[3:0] $end
$var integer 32 : i_opcode $end
$var reg 4 ; reg_a[3:0] $end
$var reg 4 < reg_b[3:0] $end
$var reg 4 = reg_c[3:0] $end
$scope module u_mem_prog $end
$var reg 7 > ender[6:0] $end
$var reg 32 ? instr[31:0] $end
$upscope $end
$scope module u_regs $end
$var reg 1 @ clk $end
$var reg 1 A wr_en $end
$var reg 4 B r_a[3:0] $end
$var reg 4 C r_b[3:0] $end
$var reg 4 D r_c[3:0] $end
$var reg 32 E a[31:0] $end
$var reg 32 F b[31:0] $end
$var reg 32 G c[31:0] $end
$comment reg_file_a is not handled $end
$comment reg_file_b is not handled $end
$var integer 32 H int_ra $end
$var integer 32 I int_rb $end
$var integer 32 J int_rc $end
$upscope $end
$scope module u_ula $end
$var reg 4 K fun[3:0] $end
$var reg 32 L alfa[31:0] $end
$var reg 32 M beta[31:0] $end
$var reg 32 N gama[31:0] $end
$var integer 32 O a $end
$var integer 32 P b $end
$var integer 32 Q c $end
$var integer 32 R sh_pos $end
$upscope $end
$scope module u_mem $end
$var reg 1 S rst $end
$var reg 1 T clk $end
$var reg 1 U sel $end
$var reg 1 V wr $end
$var reg 16 W ender[15:0] $end
$var reg 32 X data_inp[31:0] $end
$var reg 32 Y data_out[31:0] $end
$comment storage is not handled $end
$upscope $end
$scope module u_display $end
$var reg 1 Z rst $end
$var reg 1 [ clk $end
$var reg 1 \ enable $end
$var reg 32 ] data[31:0] $end
$upscope $end
$upscope $end
$upscope $end
$enddefinitions $end
#0
1!
1"
1#
1$
b11 %
0&
0'
0(
0)
0*
0+
b00000000000000000000000000000000 ,
b00000000000000000000000000000000 -
b00000000000000000000000000000000 .
b00000000000000000000000000000000 /
b00000000000000000000000000000000 0
b00000000000000000000000000000000 1
b00000000000000000000000000000000 2
b00000000000000000000000000000000 3
b0000000000000000 4
b0000000000000000 5
b0000000000000000 6
b0000000000000000 7
b0000000000000000 8
b0000 9
b0 :
b0000 ;
b0000 <
b0000 =
b0000000 >
b00000000000000000000000000000000 ?
1@
0A
b0000 B
b0000 C
b0000 D
b00000000000000000000000000000000 E
b00000000000000000000000000000000 F
b00000000000000000000000000000000 G
b0 H
b0 I
b0 J
b0000 K
b00000000000000000000000000000000 L
b00000000000000000000000000000000 M
b00000000000000000000000000000000 N
b0 O
b0 P
b10000000000000000000000000000000 Q
b0 R
1S
1T
0U
0V
b0000000000000000 W
b00000000000000000000000000000000 X
b00000000000000000000000000000000 Y
1Z
1[
0\
b00000000000000000000000000000000 ]
#250000
0"
0#
0S
0Z
#500000
0!
0$
0@
0T
0[
#1000000
1!
1$
b00 %
1&
1(
b10000000000011101111111111111110 ,
b11111111111111111111111111111110 /
b11111111111111111111111111111110 0
b11111111111111111111111111111110 1
b11111111111111111111111111111110 2
b1111111111111110 4
b0000000000000001 5
b0000000000000010 6
b1111111111111111 8
b1000 9
b1000 :
b1110 =
b0000001 >
b10000000000011101111111111111110 ?
1@
1A
b1110 D
b11111111111111111111111111111110 G
b1110 J
b1000 K
b11111111111111111111111111111110 M
b11111111111111111111111111111110 N
b11111111111111111111111111111110 P
b11110 R
1T
b1111111111111110 W
1[
#1500000
0!
0$
0@
0T
0[
#2000000
1!
1$
b10000000000001000000000000000100 ,
b00000000000000000000000000000100 /
b00000000000000000000000000000100 0
b00000000000000000000000000000100 1
b00000000000000000000000000000100 2
b0000000000000100 4
b0000000000000010 5
b0000000000000011 6
b0000000000000000 8
b0100 =
b0000010 >
b10000000000001000000000000000100 ?
1@
b0100 D
b00000000000000000000000000000100 G
b100 J
b00000000000000000000000000000100 M
b00000000000000000000000000000100 N
b100 P
b100 R
1T
b0000000000000100 W
1[
#2500000
0!
0$
0@
0T
0[
#3000000
1!
1$
b11 %
0(
b11000100000000000000000000001101 ,
b00000000000000000000000000000100 -
b00000000000000000000000000000000 /
b00000000000000000000000000001101 0
b00000000000000000000000000001101 1
b00000000000000000000000000000000 2
b0000000000001101 4
b0000000000000011 5
b0000000000000100 6
b1100 9
b1100 :
b0100 ;
b0000 =
b0000011 >
b11000100000000000000000000001101 ?
1@
0A
b0100 B
b0000 D
b00000000000000000000000000000100 E
b00000000000000000000000000000000 G
b100 H
b0 J
b1100 K
b00000000000000000000000000000100 L
b00000000000000000000000000001101 M
b00000000000000000000000000000000 N
b100 O
b1101 P
b1101 R
1T
b0000000000000000 W
1[
#3500000
0!
0$
0@
0T
0[
#4000000
1!
1$
1'
1)
1+
b10110000010000001111111111111111 ,
b00000000000000000000000000000000 -
b00000000000000000000000000000100 .
b11111111111111111111111111111111 0
b11111111111111111111111111111111 1
b11111111111111111111111111111111 2
b1111111111111111 4
b0000000000000100 5
b1111111111111111 8
b1011 9
b1011 :
b0000 ;
b0100 <
b0000100 >
b10110000010000001111111111111111 ?
1@
b0000 B
b0100 C
b00000000000000000000000000000000 E
b00000000000000000000000000000100 F
b0 H
b100 I
b1011 K
b00000000000000000000000000000000 L
b11111111111111111111111111111111 M
b11111111111111111111111111111111 N
b0 O
b11111111111111111111111111111111 P
b11111 R
1T
1V
b1111111111111111 W
b00000000000000000000000000000100 X
1[
1\
b00000000000000000000000000000100 ]
#4500000
0!
0$
0@
0T
0[
#5000000
1!
1$
b00 %
0&
0'
1(
0)
0+
b00010100000000100000000000000000 ,
b00000000000000000000000000000100 -
b00000000000000000000000000000000 .
b00000000000000000000000000000100 /
b00000000000000000000000000000000 0
b00000000000000000000000000000000 1
b00000000000000000000000000000100 2
b0000000000000000 4
b0000000000000101 5
b0000000000000110 6
b0000000000000000 8
b0001 9
b1 :
b0100 ;
b0000 <
b0010 =
b0000101 >
b00010100000000100000000000000000 ?
1@
1A
b0100 B
b0000 C
b0010 D
b00000000000000000000000000000100 E
b00000000000000000000000000000000 F
b00000000000000000000000000000100 G
b100 H
b0 I
b10 J
b0001 K
b00000000000000000000000000000100 L
b00000000000000000000000000000000 M
b00000000000000000000000000000100 N
b100 O
b0 P
b0 R
1T
0V
b0000000000000100 W
b00000000000000000000000000000000 X
1[
0\
b00000000000000000000000000000000 ]
#5500000
0!
0$
0@
0T
0[
#6000000
1!
1$
1&
b10000000000000110000000000000100 ,
b00000000000000000000000000000000 -
b00000000000000000000000000000100 /
b00000000000000000000000000000100 0
b00000000000000000000000000000100 1
b00000000000000000000000000000100 2
b0000000000000100 4
b0000000000000110 5
b0000000000000111 6
b1000 9
b1000 :
b0000 ;
b0011 =
b0000110 >
b10000000000000110000000000000100 ?
1@
b0000 B
b0011 D
b00000000000000000000000000000000 E
b00000000000000000000000000000100 G
b0 H
b11 J
b1000 K
b00000000000000000000000000000000 L
b00000000000000000000000000000100 M
b00000000000000000000000000000100 N
b0 O
b100 P
b100 R
1T
b0000000000000100 W
1[
#6500000
0!
0$
0@
0T
0[
#7000000
1!
1$
b10 %
b11010000000011110000000000001110 ,
b00000000000000000000000000001000 /
b00000000000000000000000000001110 0
b00000000000000000000000000001110 1
b00000000000000000000000000000000 2
b0000000000001110 4
b0000000000000111 5
b0000000000001000 6
b1101 9
b1101 :
b1111 =
b0000111 >
b11010000000011110000000000001110 ?
1@
b1111 D
b00000000000000000000000000001000 G
b1111 J
b1101 K
b00000000000000000000000000001110 M
b00000000000000000000000000000000 N
b1110 P
b1110 R
1T
b0000000000000000 W
1[
#7500000
0!
0$
0@
0T
0[
#8000000
1!
1$
b00 %
b10000000000001010000000000000001 ,
b00000000000000000000000000000001 /
b00000000000000000000000000000001 0
b00000000000000000000000000000001 1
b00000000000000000000000000000001 2
b0000000000000001 4
b0000000000001110 5
b1000 9
b1000 :
b0101 =
b0001110 >
b10000000000001010000000000000001 ?
1@
b0101 D
b00000000000000000000000000000001 G
b101 J
b1000 K
b00000000000000000000000000000001 M
b00000000000000000000000000000001 N
b1 P
b1 R
1T
b0000000000000001 W
1[
#8500000
0!
0$
0@
0T
0[
#9000000
1!
1$
b11 %
0(
b11000011010100000000000000011010 ,
b00000000000000000000000000000100 -
b00000000000000000000000000000001 .
b00000000000000000000000000000000 /
b00000000000000000000000000011010 0
b00000000000000000000000000011010 1
b00000000000000000000000000000000 2
b0000000000011010 4
b0000000000001111 5
b0000000000010000 6
b1100 9
b1100 :
b0011 ;
b0101 <
b0000 =
b0001111 >
b11000011010100000000000000011010 ?
1@
0A
b0011 B
b0101 C
b0000 D
b00000000000000000000000000000100 E
b00000000000000000000000000000001 F
b00000000000000000000000000000000 G
b11 H
b101 I
b0 J
b1100 K
b00000000000000000000000000000100 L
b00000000000000000000000000011010 M
b00000000000000000000000000000000 N
b100 O
b11010 P
b11010 R
1T
b0000000000000000 W
b00000000000000000000000000000001 X
1[
b00000000000000000000000000000001 ]
#9500000
0!
0$
0@
0T
0[
#10000000
1!
1$
b00 %
1(
b10001110000011101111111111111110 ,
b11111111111111111111111111111110 -
b00000000000000000000000000000000 .
b11111111111111111111111111111100 /
b11111111111111111111111111111110 0
b11111111111111111111111111111110 1
b11111111111111111111111111111100 2
b1111111111111110 4
b0000000000010000 5
b1111111111111111 8
b1000 9
b1000 :
b1110 ;
b0000 <
b1110 =
b0010000 >
b10001110000011101111111111111110 ?
1@
1A
b1110 B
b0000 C
b1110 D
b11111111111111111111111111111110 E
b00000000000000000000000000000000 F
b11111111111111111111111111111100 G
b1110 H
b0 I
b1110 J
b1000 K
b11111111111111111111111111111110 L
b11111111111111111111111111111110 M
b11111111111111111111111111111100 N
b11111111111111111111111111111110 O
b11111111111111111111111111111110 P
b11110 R
1T
b1111111111111100 W
b00000000000000000000000000000000 X
1[
b00000000000000000000000000000000 ]
#10500000
0!
0$
0@
0T
0[
#11000000
1!
1$
b11 %
0(
1)
1*
1+
b10111110111100000000000000000000 ,
b11111111111111111111111111111100 -
b00000000000000000000000000001000 .
b00000000000000000000000000000000 /
b00000000000000000000000000000000 0
b00000000000000000000000000000000 1
b11111111111111111111111111111100 2
b0000000000000000 4
b0000000000010001 5
b0000000000010010 6
b0000000000000000 8
b1011 9
b1011 :
b1111 <
b0000 =
b0010001 >
b10111110111100000000000000000000 ?
1@
0A
b1111 C
b0000 D
b11111111111111111111111111111100 E
b00000000000000000000000000001000 F
b00000000000000000000000000000000 G
b1111 I
b0 J
b1011 K
b11111111111111111111111111111100 L
b00000000000000000000000000000000 M
b11111111111111111111111111111100 N
b11111111111111111111111111111100 O
b0 P
b0 R
1T
1U
1V
b1111111111111100 W
b00000000000000000000000000001000 X
1[
b00000000000000000000000000001000 ]
#11500000
0!
0$
0@
0T
0[
#12000000
1!
1$
b10111110001100000000000000000001 ,
b00000000000000000000000000000100 .
b00000000000000000000000000000001 0
b00000000000000000000000000000001 1
b11111111111111111111111111111101 2
b00000000000000000000000000000000 3
b0000000000000001 4
b0000000000010010 5
b0000000000010011 6
b0011 <
b0010010 >
b10111110001100000000000000000001 ?
1@
b0011 C
b00000000000000000000000000000100 F
b11 I
b00000000000000000000000000000001 M
b11111111111111111111111111111101 N
b1 P
b1 R
1T
b1111111111111101 W
b00000000000000000000000000000100 X
b00000000000000000000000000000000 Y
1[
b00000000000000000000000000000100 ]
#12500000
0!
0$
0@
0T
0[
#13000000
1!
1$
b00 %
1(
0)
0*
0+
b10000011000000111111111111111111 ,
b00000000000000000000000000000100 -
b00000000000000000000000000000000 .
b00000000000000000000000000000011 /
b11111111111111111111111111111111 0
b11111111111111111111111111111111 1
b00000000000000000000000000000011 2
b00000000000000000000000000000000 3
b1111111111111111 4
b0000000000010011 5
b0000000000010100 6
b1111111111111111 8
b1000 9
b1000 :
b0011 ;
b0000 <
b0011 =
b0010011 >
b10000011000000111111111111111111 ?
1@
1A
b0011 B
b0000 C
b0011 D
b00000000000000000000000000000100 E
b00000000000000000000000000000000 F
b00000000000000000000000000000011 G
b11 H
b0 I
b11 J
b1000 K
b00000000000000000000000000000100 L
b11111111111111111111111111111111 M
b00000000000000000000000000000011 N
b100 O
b11111111111111111111111111111111 P
b11111 R
1T
0U
0V
b0000000000000011 W
b00000000000000000000000000000000 X
b00000000000000000000000000000000 Y
1[
b00000000000000000000000000000000 ]
#13500000
0!
0$
0@
0T
0[
#14000000
1!
1$
b10 %
b11010000000011110000000000001110 ,
b00000000000000000000000000000000 -
b00000000000000000000000000010101 /
b00000000000000000000000000001110 0
b00000000000000000000000000001110 1
b00000000000000000000000000000000 2
b0000000000001110 4
b0000000000010100 5
b0000000000010101 6
b0000000000000000 8
b1101 9
b1101 :
b0000 ;
b1111 =
b0010100 >
b11010000000011110000000000001110 ?
1@
b0000 B
b1111 D
b00000000000000000000000000000000 E
b00000000000000000000000000010101 G
b0 H
b1111 J
b1101 K
b00000000000000000000000000000000 L
b00000000000000000000000000001110 M
b00000000000000000000000000000000 N
b0 O
b1110 P
b1110 R
1T
b0000000000000000 W
1[
#14500000
0!
0$
0@
0T
0[
#15000000
1!
1$
b00 %
b10000000000001010000000000000001 ,
b00000000000000000000000000000001 /
b00000000000000000000000000000001 0
b00000000000000000000000000000001 1
b00000000000000000000000000000001 2
b0000000000000001 4
b0000000000001110 5
b1000 9
b1000 :
b0101 =
b0001110 >
b10000000000001010000000000000001 ?
1@
b0101 D
b00000000000000000000000000000001 G
b101 J
b1000 K
b00000000000000000000000000000001 M
b00000000000000000000000000000001 N
b1 P
b1 R
1T
b0000000000000001 W
1[
#15500000
0!
0$
0@
0T
0[
#16000000
1!
1$
b11 %
0(
b11000011010100000000000000011010 ,
b00000000000000000000000000000011 -
b00000000000000000000000000000001 .
b00000000000000000000000000000000 /
b00000000000000000000000000011010 0
b00000000000000000000000000011010 1
b00000000000000000000000000000000 2
b0000000000011010 4
b0000000000001111 5
b0000000000010000 6
b1100 9
b1100 :
b0011 ;
b0101 <
b0000 =
b0001111 >
b11000011010100000000000000011010 ?
1@
0A
b0011 B
b0101 C
b0000 D
b00000000000000000000000000000011 E
b00000000000000000000000000000001 F
b00000000000000000000000000000000 G
b11 H
b101 I
b0 J
b1100 K
b00000000000000000000000000000011 L
b00000000000000000000000000011010 M
b00000000000000000000000000000000 N
b11 O
b11010 P
b11010 R
1T
b0000000000000000 W
b00000000000000000000000000000001 X
1[
b00000000000000000000000000000001 ]
#16500000
0!
0$
0@
0T
0[
#17000000
1!
1$
b00 %
1(
b10001110000011101111111111111110 ,
b11111111111111111111111111111100 -
b00000000000000000000000000000000 .
b11111111111111111111111111111010 /
b11111111111111111111111111111110 0
b11111111111111111111111111111110 1
b11111111111111111111111111111010 2
b1111111111111110 4
b0000000000010000 5
b1111111111111111 8
b1000 9
b1000 :
b1110 ;
b0000 <
b1110 =
b0010000 >
b10001110000011101111111111111110 ?
1@
1A
b1110 B
b0000 C
b1110 D
b11111111111111111111111111111100 E
b00000000000000000000000000000000 F
b11111111111111111111111111111010 G
b1110 H
b0 I
b1110 J
b1000 K
b11111111111111111111111111111100 L
b11111111111111111111111111111110 M
b11111111111111111111111111111010 N
b11111111111111111111111111111100 O
b11111111111111111111111111111110 P
b11110 R
1T
b1111111111111010 W
b00000000000000000000000000000000 X
1[
b00000000000000000000000000000000 ]
#17500000
0!
0$
0@
0T
0[
#18000000
1!
1$
b11 %
0(
1)
1*
1+
b10111110111100000000000000000000 ,
b11111111111111111111111111111010 -
b00000000000000000000000000010101 .
b00000000000000000000000000000000 /
b00000000000000000000000000000000 0
b00000000000000000000000000000000 1
b11111111111111111111111111111010 2
b0000000000000000 4
b0000000000010001 5
b0000000000010010 6
b0000000000000000 8
b1011 9
b1011 :
b1111 <
b0000 =
b0010001 >
b10111110111100000000000000000000 ?
1@
0A
b1111 C
b0000 D
b11111111111111111111111111111010 E
b00000000000000000000000000010101 F
b00000000000000000000000000000000 G
b1111 I
b0 J
b1011 K
b11111111111111111111111111111010 L
b00000000000000000000000000000000 M
b11111111111111111111111111111010 N
b11111111111111111111111111111010 O
b0 P
b0 R
1T
1U
1V
b1111111111111010 W
b00000000000000000000000000010101 X
1[
b00000000000000000000000000010101 ]
#18500000
0!
0$
0@
0T
0[
#19000000
1!
1$
b10111110001100000000000000000001 ,
b00000000000000000000000000000011 .
b00000000000000000000000000000001 0
b00000000000000000000000000000001 1
b11111111111111111111111111111011 2
b00000000000000000000000000000000 3
b0000000000000001 4
b0000000000010010 5
b0000000000010011 6
b0011 <
b0010010 >
b10111110001100000000000000000001 ?
1@
b0011 C
b00000000000000000000000000000011 F
b11 I
b00000000000000000000000000000001 M
b11111111111111111111111111111011 N
b1 P
b1 R
1T
b1111111111111011 W
b00000000000000000000000000000011 X
b00000000000000000000000000000000 Y
1[
b00000000000000000000000000000011 ]
#19500000
0!
0$
0@
0T
0[
#20000000
1!
1$
b00 %
1(
0)
0*
0+
b10000011000000111111111111111111 ,
b00000000000000000000000000000011 -
b00000000000000000000000000000000 .
b00000000000000000000000000000010 /
b11111111111111111111111111111111 0
b11111111111111111111111111111111 1
b00000000000000000000000000000010 2
b00000000000000000000000000000000 3
b1111111111111111 4
b0000000000010011 5
b0000000000010100 6
b1111111111111111 8
b1000 9
b1000 :
b0011 ;
b0000 <
b0011 =
b0010011 >
b10000011000000111111111111111111 ?
1@
1A
b0011 B
b0000 C
b0011 D
b00000000000000000000000000000011 E
b00000000000000000000000000000000 F
b00000000000000000000000000000010 G
b11 H
b0 I
b11 J
b1000 K
b00000000000000000000000000000011 L
b11111111111111111111111111111111 M
b00000000000000000000000000000010 N
b11 O
b11111111111111111111111111111111 P
b11111 R
1T
0U
0V
b0000000000000010 W
b00000000000000000000000000000000 X
b00000000000000000000000000000000 Y
1[
b00000000000000000000000000000000 ]
#20500000
0!
0$
0@
0T
0[
#21000000
1!
1$
b10 %
b11010000000011110000000000001110 ,
b00000000000000000000000000000000 -
b00000000000000000000000000010101 /
b00000000000000000000000000001110 0
b00000000000000000000000000001110 1
b00000000000000000000000000000000 2
b0000000000001110 4
b0000000000010100 5
b0000000000010101 6
b0000000000000000 8
b1101 9
b1101 :
b0000 ;
b1111 =
b0010100 >
b11010000000011110000000000001110 ?
1@
b0000 B
b1111 D
b00000000000000000000000000000000 E
b00000000000000000000000000010101 G
b0 H
b1111 J
b1101 K
b00000000000000000000000000000000 L
b00000000000000000000000000001110 M
b00000000000000000000000000000000 N
b0 O
b1110 P
b1110 R
1T
b0000000000000000 W
1[
#21500000
0!
0$
0@
0T
0[
#22000000
1!
1$
b00 %
b10000000000001010000000000000001 ,
b00000000000000000000000000000001 /
b00000000000000000000000000000001 0
b00000000000000000000000000000001 1
b00000000000000000000000000000001 2
b0000000000000001 4
b0000000000001110 5
b1000 9
b1000 :
b0101 =
b0001110 >
b10000000000001010000000000000001 ?
1@
b0101 D
b00000000000000000000000000000001 G
b101 J
b1000 K
b00000000000000000000000000000001 M
b00000000000000000000000000000001 N
b1 P
b1 R
1T
b0000000000000001 W
1[
#22500000
0!
0$
0@
0T
0[
#23000000
1!
1$
b11 %
0(
b11000011010100000000000000011010 ,
b00000000000000000000000000000010 -
b00000000000000000000000000000001 .
b00000000000000000000000000000000 /
b00000000000000000000000000011010 0
b00000000000000000000000000011010 1
b00000000000000000000000000000000 2
b0000000000011010 4
b0000000000001111 5
b0000000000010000 6
b1100 9
b1100 :
b0011 ;
b0101 <
b0000 =
b0001111 >
b11000011010100000000000000011010 ?
1@
0A
b0011 B
b0101 C
b0000 D
b00000000000000000000000000000010 E
b00000000000000000000000000000001 F
b00000000000000000000000000000000 G
b11 H
b101 I
b0 J
b1100 K
b00000000000000000000000000000010 L
b00000000000000000000000000011010 M
b00000000000000000000000000000000 N
b10 O
b11010 P
b11010 R
1T
b0000000000000000 W
b00000000000000000000000000000001 X
1[
b00000000000000000000000000000001 ]
#23500000
0!
0$
0@
0T
0[
#24000000
1!
1$
b00 %
1(
b10001110000011101111111111111110 ,
b11111111111111111111111111111010 -
b00000000000000000000000000000000 .
b11111111111111111111111111111000 /
b11111111111111111111111111111110 0
b11111111111111111111111111111110 1
b11111111111111111111111111111000 2
b1111111111111110 4
b0000000000010000 5
b1111111111111111 8
b1000 9
b1000 :
b1110 ;
b0000 <
b1110 =
b0010000 >
b10001110000011101111111111111110 ?
1@
1A
b1110 B
b0000 C
b1110 D
b11111111111111111111111111111010 E
b00000000000000000000000000000000 F
b11111111111111111111111111111000 G
b1110 H
b0 I
b1110 J
b1000 K
b11111111111111111111111111111010 L
b11111111111111111111111111111110 M
b11111111111111111111111111111000 N
b11111111111111111111111111111010 O
b11111111111111111111111111111110 P
b11110 R
1T
b1111111111111000 W
b00000000000000000000000000000000 X
1[
b00000000000000000000000000000000 ]
#24500000
0!
0$
0@
0T
0[
#25000000
1!
1$
b11 %
0(
1)
1*
1+
b10111110111100000000000000000000 ,
b11111111111111111111111111111000 -
b00000000000000000000000000010101 .
b00000000000000000000000000000000 /
b00000000000000000000000000000000 0
b00000000000000000000000000000000 1
b11111111111111111111111111111000 2
b0000000000000000 4
b0000000000010001 5
b0000000000010010 6
b0000000000000000 8
b1011 9
b1011 :
b1111 <
b0000 =
b0010001 >
b10111110111100000000000000000000 ?
1@
0A
b1111 C
b0000 D
b11111111111111111111111111111000 E
b00000000000000000000000000010101 F
b00000000000000000000000000000000 G
b1111 I
b0 J
b1011 K
b11111111111111111111111111111000 L
b00000000000000000000000000000000 M
b11111111111111111111111111111000 N
b11111111111111111111111111111000 O
b0 P
b0 R
1T
1U
1V
b1111111111111000 W
b00000000000000000000000000010101 X
1[
b00000000000000000000000000010101 ]
#25500000
0!
0$
0@
0T
0[
#26000000
1!
1$
b10111110001100000000000000000001 ,
b00000000000000000000000000000010 .
b00000000000000000000000000000001 0
b00000000000000000000000000000001 1
b11111111111111111111111111111001 2
b00000000000000000000000000000000 3
b0000000000000001 4
b0000000000010010 5
b0000000000010011 6
b0011 <
b0010010 >
b10111110001100000000000000000001 ?
1@
b0011 C
b00000000000000000000000000000010 F
b11 I
b00000000000000000000000000000001 M
b11111111111111111111111111111001 N
b1 P
b1 R
1T
b1111111111111001 W
b00000000000000000000000000000010 X
b00000000000000000000000000000000 Y
1[
b00000000000000000000000000000010 ]
#26500000
0!
0$
0@
0T
0[
#27000000
1!
1$
b00 %
1(
0)
0*
0+
b10000011000000111111111111111111 ,
b00000000000000000000000000000010 -
b00000000000000000000000000000000 .
b00000000000000000000000000000001 /
b11111111111111111111111111111111 0
b11111111111111111111111111111111 1
b00000000000000000000000000000001 2
b00000000000000000000000000000000 3
b1111111111111111 4
b0000000000010011 5
b0000000000010100 6
b1111111111111111 8
b1000 9
b1000 :
b0011 ;
b0000 <
b0011 =
b0010011 >
b10000011000000111111111111111111 ?
1@
1A
b0011 B
b0000 C
b0011 D
b00000000000000000000000000000010 E
b00000000000000000000000000000000 F
b00000000000000000000000000000001 G
b11 H
b0 I
b11 J
b1000 K
b00000000000000000000000000000010 L
b11111111111111111111111111111111 M
b00000000000000000000000000000001 N
b10 O
b11111111111111111111111111111111 P
b11111 R
1T
0U
0V
b0000000000000001 W
b00000000000000000000000000000000 X
b00000000000000000000000000000000 Y
1[
b00000000000000000000000000000000 ]
#27500000
0!
0$
0@
0T
0[
#28000000
1!
1$
b10 %
b11010000000011110000000000001110 ,
b00000000000000000000000000000000 -
b00000000000000000000000000010101 /
b00000000000000000000000000001110 0
b00000000000000000000000000001110 1
b00000000000000000000000000000000 2
b0000000000001110 4
b0000000000010100 5
b0000000000010101 6
b0000000000000000 8
b1101 9
b1101 :
b0000 ;
b1111 =
b0010100 >
b11010000000011110000000000001110 ?
1@
b0000 B
b1111 D
b00000000000000000000000000000000 E
b00000000000000000000000000010101 G
b0 H
b1111 J
b1101 K
b00000000000000000000000000000000 L
b00000000000000000000000000001110 M
b00000000000000000000000000000000 N
b0 O
b1110 P
b1110 R
1T
b0000000000000000 W
1[
#28500000
0!
0$
0@
0T
0[
#29000000
1!
1$
b00 %
b10000000000001010000000000000001 ,
b00000000000000000000000000000001 /
b00000000000000000000000000000001 0
b00000000000000000000000000000001 1
b00000000000000000000000000000001 2
b0000000000000001 4
b0000000000001110 5
b1000 9
b1000 :
b0101 =
b0001110 >
b10000000000001010000000000000001 ?
1@
b0101 D
b00000000000000000000000000000001 G
b101 J
b1000 K
b00000000000000000000000000000001 M
b00000000000000000000000000000001 N
b1 P
b1 R
1T
b0000000000000001 W
1[
#29500000
0!
0$
0@
0T
0[
#30000000
1!
1$
b11 %
0(
b11000011010100000000000000011010 ,
b00000000000000000000000000000001 -
b00000000000000000000000000000001 .
b00000000000000000000000000000000 /
b00000000000000000000000000011010 0
b00000000000000000000000000011010 1
b00000000000000000000000000000000 2
b0000000000011010 4
b0000000000001111 5
b0000000000010000 6
b1100 9
b1100 :
b0011 ;
b0101 <
b0000 =
b0001111 >
b11000011010100000000000000011010 ?
1@
0A
b0011 B
b0101 C
b0000 D
b00000000000000000000000000000001 E
b00000000000000000000000000000001 F
b00000000000000000000000000000000 G
b11 H
b101 I
b0 J
b1100 K
b00000000000000000000000000000001 L
b00000000000000000000000000011010 M
b00000000000000000000000000000000 N
b1 O
b11010 P
b11010 R
1T
b0000000000000000 W
b00000000000000000000000000000001 X
1[
b00000000000000000000000000000001 ]
#30500000
0!
0$
0@
0T
0[
#31000000
1!
1$
b00 %
0&
1(
b00010000001000010000000000000000 ,
b00000000000000000000000000000000 -
b00000000000000000000000000000100 .
b00000000000000000000000000000100 /
b00000000000000000000000000000100 0
b00000000000000000000000000000000 1
b00000000000000000000000000000100 2
b0000000000000000 4
b0000000000011010 5
b0001 9
b1 :
b0000 ;
b0010 <
b0001 =
b0011010 >
b00010000001000010000000000000000 ?
1@
1A
b0000 B
b0010 C
b0001 D
b00000000000000000000000000000000 E
b00000000000000000000000000000100 F
b00000000000000000000000000000100 G
b0 H
b10 I
b1 J
b0001 K
b00000000000000000000000000000000 L
b00000000000000000000000000000100 M
b00000000000000000000000000000100 N
b0 O
b100 P
b100 R
1T
b0000000000000100 W
b00000000000000000000000000000100 X
1[
b00000000000000000000000000000100 ]
#31500000
0!
0$
0@
0T
0[
#32000000
1!
1$
b11 %
0(
b11101111000000000000000000000000 ,
b00000000000000000000000000010101 -
b00000000000000000000000000000000 .
b00000000000000000000000000000000 /
b00000000000000000000000000000000 0
b00000000000000000000000000000000 2
b0000000000011011 5
b0000000000011100 6
b1110 9
b1110 :
b1111 ;
b0000 <
b0000 =
b0011011 >
b11101111000000000000000000000000 ?
1@
0A
b1111 B
b0000 C
b0000 D
b00000000000000000000000000010101 E
b00000000000000000000000000000000 F
b00000000000000000000000000000000 G
b1111 H
b0 I
b0 J
b1110 K
b00000000000000000000000000010101 L
b00000000000000000000000000000000 M
b00000000000000000000000000000000 N
b10101 O
b0 P
b0 R
1T
b0000000000000000 W
b00000000000000000000000000000000 X
1[
b00000000000000000000000000000000 ]
#32500000
0!
0$
0@
0T
0[
#33000000
1!
1$
b00 %
1(
b00110001001000010000000000000000 ,
b00000000000000000000000000000100 -
b00000000000000000000000000000100 .
b00000000000000000000000000010000 /
b00000000000000000000000000000100 0
b00000000000000000000000000010000 2
b0000000000010101 5
b0011 9
b11 :
b0001 ;
b0010 <
b0001 =
b0010101 >
b00110001001000010000000000000000 ?
1@
1A
b0001 B
b0010 C
b0001 D
b00000000000000000000000000000100 E
b00000000000000000000000000000100 F
b00000000000000000000000000010000 G
b1 H
b10 I
b1 J
b0011 K
b00000000000000000000000000000100 L
b00000000000000000000000000000100 M
b00000000000000000000000000010000 N
b100 O
b100 P
b100 R
1T
b0000000000010000 W
b00000000000000000000000000000100 X
1[
b00000000000000000000000000000100 ]
#33500000
0!
0$
0@
0T
0[
#34000000
1!
1$
b01 %
1&
1)
1*
b10101110000011110000000000000000 ,
b11111111111111111111111111111000 -
b00000000000000000000000000000000 .
b00000000000000000000000000010101 /
b00000000000000000000000000000000 0
b11111111111111111111111111111000 2
b00000000000000000000000000010101 3
b0000000000010110 5
b0000000000010111 6
b1010 9
b1010 :
b1110 ;
b0000 <
b1111 =
b0010110 >
b10101110000011110000000000000000 ?
1@
b1110 B
b0000 C
b1111 D
b11111111111111111111111111111000 E
b00000000000000000000000000000000 F
b00000000000000000000000000010101 G
b1110 H
b0 I
b1111 J
b1010 K
b11111111111111111111111111111000 L
b00000000000000000000000000000000 M
b11111111111111111111111111111000 N
b11111111111111111111111111111000 O
b0 P
b0 R
1T
1U
b1111111111111000 W
b00000000000000000000000000000000 X
b00000000000000000000000000010101 Y
1[
b00000000000000000000000000000000 ]
#34500000
0!
0$
0@
0T
0[
