maqEst/v_reduz.vcd
$date
  Thu Oct 24 18:27:51 2019
$end
$version
  GHDL v0
$end
$timescale
  1 fs
$end
$scope module standard $end
$upscope $end
$scope module std_logic_1164 $end
$upscope $end
$scope module numeric_std $end
$upscope $end
$scope module textio $end
$upscope $end
$scope module p_wires $end
$upscope $end
$scope module tb_reduz $end
$var reg 1 ! clk $end
$var reg 1 " rst $end
$var reg 1 # w_sel $end
$var reg 32 $ entrada[31:0] $end
$var reg 32 % saida[31:0] $end
$var reg 32 & esp_res[31:0] $end
$var reg 1 ' fim_da_simulacao $end
$scope module u_reduz $end
$var reg 1 ( rst $end
$var reg 1 ) clk $end
$var reg 32 * valor[31:0] $end
$var reg 32 + saida[31:0] $end
$var reg 1 , sel $end
$comment curr_st is not handled $end
$comment next_st is not handled $end
$var reg 32 - alfa[31:0] $end
$var reg 32 . beta[31:0] $end
$var reg 32 / delta[31:0] $end
$var reg 32 0 inp_red[31:0] $end
$var reg 32 1 oper32[31:0] $end
$var reg 3 2 oper[2:0] $end
$var reg 1 3 ld_b $end
$var reg 1 4 ld_op $end
$var reg 1 5 init_b $end
$var reg 1 6 sync $end
$var reg 1 7 pronto $end
$var integer 32 8 dbg_st $end
$scope module u_oper $end
$var reg 1 9 clk $end
$var reg 1 : rst $end
$var reg 1 ; ld $end
$var reg 32 < d[31:0] $end
$var reg 32 = q[31:0] $end
$var reg 32 > value[31:0] $end
$upscope $end
$scope module u_red $end
$var reg 1 ? clk $end
$var reg 1 @ rst $end
$var reg 1 A ld $end
$var reg 32 B d[31:0] $end
$var reg 32 C q[31:0] $end
$var reg 32 D value[31:0] $end
$upscope $end
$scope module u_ula $end
$var reg 32 E alfa[31:0] $end
$var reg 32 F beta[31:0] $end
$var reg 3 G oper[2:0] $end
$var reg 32 H delta[31:0] $end
$var integer 32 I soma $end
$var integer 32 J prod $end
$var reg 32 K b_soma[31:0] $end
$var reg 32 L b_prod[31:0] $end
$upscope $end
$upscope $end
$scope module u_write_output $end
$var reg 1 M rst $end
$var reg 1 N clk $end
$var reg 1 O sel $end
$var reg 32 P data[31:0] $end
$upscope $end
$upscope $end
$enddefinitions $end
#0
1!
0"
0#
b11111111111111111111111111111111 $
b11111111111111111111111111111111 %
b00000000000000000000000000000000 &
0'
0(
1)
b11111111111111111111111111111111 *
b11111111111111111111111111111111 +
0,
b11111111111111111111111111111111 -
b00000000000000000000000000000000 .
b11111111111111111111111111111111 /
b11111111111111111111111111111111 0
b00000000000000000000000000000000 1
b000 2
03
04
05
16
07
b0 8
19
0:
0;
b11111111111111111111111111111111 <
b00000000000000000000000000000000 =
b00000000000000000000000000000000 >
1?
0@
0A
b11111111111111111111111111111111 B
b00000000000000000000000000000000 C
b00000000000000000000000000000000 D
b11111111111111111111111111111111 E
b00000000000000000000000000000000 F
b000 G
b11111111111111111111111111111111 H
b11111111111111111111111111111111 I
b0 J
b11111111111111111111111111111111 K
b00000000000000000000000000000000 L
0M
1N
0O
b11111111111111111111111111111111 P
#500000
0!
0)
09
0?
0N
#750000
1"
1(
1:
1@
1M
#1000000
1!
1)
19
1?
1N
#1500000
0!
0)
09
0?
0N
#2000000
1!
b00000000000000000000000000000100 $
b00000000000000000000000000000100 %
1)
b00000000000000000000000000000100 *
b00000000000000000000000000000100 +
b00000000000000000000000000000100 -
b00000000000000000000000000000100 /
b00000000000000000000000000000100 0
14
06
19
1;
b00000000000000000000000000000100 <
1?
b00000000000000000000000000000100 B
b00000000000000000000000000000100 E
b00000000000000000000000000000100 H
b100 I
b00000000000000000000000000000100 K
1N
b00000000000000000000000000000100 P
#2500000
0!
0)
09
0?
0N
#3000000
1!
b00000000000000000000000000000001 $
b00000000000000000000000000000000 %
1)
b00000000000000000000000000000001 *
b00000000000000000000000000000000 +
b00000000000000000000000000000001 -
b00000000000000000000000000000000 /
b00000000000000000000000000000001 0
b00000000000000000000000000000100 1
b100 2
13
04
15
b1 8
19
0;
b00000000000000000000000000000001 <
b00000000000000000000000000000100 =
b00000000000000000000000000000100 >
1?
1A
b00000000000000000000000000000001 B
b00000000000000000000000000000001 E
b100 G
b00000000000000000000000000000000 H
b1 I
b00000000000000000000000000000001 K
1N
b00000000000000000000000000000000 P
#3500000
0!
0)
09
0?
0N
#4000000
1!
b00000000000000000000000000000010 $
b00000000000000000000000000000010 %
1)
b00000000000000000000000000000010 *
b00000000000000000000000000000010 +
b00000000000000000000000000000010 -
b00000000000000000000000000000001 .
b00000000000000000000000000000010 /
b00000000000000000000000000000010 0
05
b10 8
19
b00000000000000000000000000000010 <
1?
b00000000000000000000000000000010 B
b00000000000000000000000000000001 C
b00000000000000000000000000000001 D
b00000000000000000000000000000010 E
b00000000000000000000000000000001 F
b00000000000000000000000000000010 H
b11 I
b10 J
b00000000000000000000000000000011 K
b00000000000000000000000000000010 L
1N
b00000000000000000000000000000010 P
#4500000
0!
0)
09
0?
0N
#5000000
1!
b00000000000000000000000000000011 $
b00000000000000000000000000000110 %
1)
b00000000000000000000000000000011 *
b00000000000000000000000000000110 +
b00000000000000000000000000000011 -
b00000000000000000000000000000010 .
b00000000000000000000000000000110 /
b00000000000000000000000000000110 0
b11 8
19
b00000000000000000000000000000011 <
1?
b00000000000000000000000000000110 B
b00000000000000000000000000000010 C
b00000000000000000000000000000010 D
b00000000000000000000000000000011 E
b00000000000000000000000000000010 F
b00000000000000000000000000000110 H
b101 I
b110 J
b00000000000000000000000000000101 K
b00000000000000000000000000000110 L
1N
b00000000000000000000000000000110 P
#5500000
0!
0)
09
0?
0N
#6000000
1!
b00000000000000000000000000000100 $
b00000000000000000000000000011000 %
1)
b00000000000000000000000000000100 *
b00000000000000000000000000011000 +
b00000000000000000000000000000100 -
b00000000000000000000000000000110 .
b00000000000000000000000000011000 /
b00000000000000000000000000011000 0
b100 8
19
b00000000000000000000000000000100 <
1?
b00000000000000000000000000011000 B
b00000000000000000000000000000110 C
b00000000000000000000000000000110 D
b00000000000000000000000000000100 E
b00000000000000000000000000000110 F
b00000000000000000000000000011000 H
b1010 I
b11000 J
b00000000000000000000000000001010 K
b00000000000000000000000000011000 L
1N
b00000000000000000000000000011000 P
#6500000
0!
0)
09
0?
0N
#7000000
1!
b00000000000000000000000000000101 $
b00000000000000000000000001111000 %
1)
b00000000000000000000000000000101 *
b00000000000000000000000001111000 +
b00000000000000000000000000000101 -
b00000000000000000000000000011000 .
b00000000000000000000000001111000 /
b00000000000000000000000001111000 0
b101 8
19
b00000000000000000000000000000101 <
1?
b00000000000000000000000001111000 B
b00000000000000000000000000011000 C
b00000000000000000000000000011000 D
b00000000000000000000000000000101 E
b00000000000000000000000000011000 F
b00000000000000000000000001111000 H
b11101 I
b1111000 J
b00000000000000000000000000011101 K
b00000000000000000000000001111000 L
1N
b00000000000000000000000001111000 P
#7500000
0!
0)
09
0?
0N
#8000000
1!
b00000000000000000000000000000110 $
b00000000000000000000001011010000 %
1)
b00000000000000000000000000000110 *
b00000000000000000000001011010000 +
b00000000000000000000000000000110 -
b00000000000000000000000001111000 .
b00000000000000000000001011010000 /
b00000000000000000000001011010000 0
b110 8
19
b00000000000000000000000000000110 <
1?
b00000000000000000000001011010000 B
b00000000000000000000000001111000 C
b00000000000000000000000001111000 D
b00000000000000000000000000000110 E
b00000000000000000000000001111000 F
b00000000000000000000001011010000 H
b1111110 I
b1011010000 J
b00000000000000000000000001111110 K
b00000000000000000000001011010000 L
1N
b00000000000000000000001011010000 P
#8500000
0!
0)
09
0?
0N
#9000000
1!
b00000000000000000000000000000111 $
b00000000000000000001001110110000 %
1)
b00000000000000000000000000000111 *
b00000000000000000001001110110000 +
b00000000000000000000000000000111 -
b00000000000000000000001011010000 .
b00000000000000000001001110110000 /
b00000000000000000001001110110000 0
b111 8
19
b00000000000000000000000000000111 <
1?
b00000000000000000001001110110000 B
b00000000000000000000001011010000 C
b00000000000000000000001011010000 D
b00000000000000000000000000000111 E
b00000000000000000000001011010000 F
b00000000000000000001001110110000 H
b1011010111 I
b1001110110000 J
b00000000000000000000001011010111 K
b00000000000000000001001110110000 L
1N
b00000000000000000001001110110000 P
#9500000
0!
0)
09
0?
0N
#10000000
1!
1#
b00000000000000000000000000001000 $
b00000000000000001001110110000000 %
b00000000000000001001110110000000 &
1)
b00000000000000000000000000001000 *
b00000000000000001001110110000000 +
1,
b00000000000000000000000000001000 -
b00000000000000000001001110110000 .
b00000000000000001001110110000000 /
b00000000000000001001110110000000 0
03
b1000 8
19
b00000000000000000000000000001000 <
1?
0A
b00000000000000001001110110000000 B
b00000000000000000001001110110000 C
b00000000000000000001001110110000 D
b00000000000000000000000000001000 E
b00000000000000000001001110110000 F
b00000000000000001001110110000000 H
b1001110111000 I
b1001110110000000 J
b00000000000000000001001110111000 K
b00000000000000001001110110000000 L
1N
1O
b00000000000000001001110110000000 P
#10500000
0!
0)
09
0?
0N
#11000000
1!
0#
b11111111111111111111111111111111 $
b11111111111111111110110001010000 %
b00000000000000000000000000000000 &
1)
b11111111111111111111111111111111 *
b11111111111111111110110001010000 +
0,
b11111111111111111111111111111111 -
b11111111111111111110110001010000 /
b11111111111111111110110001010000 0
04
16
b0 8
19
0;
b11111111111111111111111111111111 <
1?
b11111111111111111110110001010000 B
b11111111111111111111111111111111 E
b11111111111111111110110001010000 H
b1001110101111 I
b11111111111111111110110001010000 J
b00000000000000000001001110101111 K
b11111111111111111110110001010000 L
1N
0O
b11111111111111111110110001010000 P
#11500000
0!
0)
09
0?
0N
#12000000
1!
b00000000000000000000000000000011 $
b00000000000000000011101100010000 %
1)
b00000000000000000000000000000011 *
b00000000000000000011101100010000 +
b00000000000000000000000000000011 -
b00000000000000000011101100010000 /
b00000000000000000011101100010000 0
14
06
19
1;
b00000000000000000000000000000011 <
1?
b00000000000000000011101100010000 B
b00000000000000000000000000000011 E
b00000000000000000011101100010000 H
b1001110110011 I
b11101100010000 J
b00000000000000000001001110110011 K
b00000000000000000011101100010000 L
1N
b00000000000000000011101100010000 P
#12500000
0!
0)
09
0?
0N
#13000000
1!
b00010001000100010001000100010001 $
b00010001000100010010010011000001 %
1)
b00010001000100010001000100010001 *
b00010001000100010010010011000001 +
b00010001000100010001000100010001 -
b00010001000100010010010011000001 /
b00010001000100010001000100010001 0
b00000000000000000000000000000011 1
b011 2
13
04
15
b1 8
19
0;
b00010001000100010001000100010001 <
b00000000000000000000000000000011 =
b00000000000000000000000000000011 >
1?
1A
b00010001000100010001000100010001 B
b00010001000100010001000100010001 E
b011 G
b00010001000100010010010011000001 H
b10001000100010010010011000001 I
b11111111111111111111111010110000 J
b00010001000100010010010011000001 K
b11111111111111111111111010110000 L
1N
b00010001000100010010010011000001 P
#13500000
0!
0)
09
0?
0N
#14000000
1!
b00100010001000100010001000100010 $
b00110011001100110011001100110011 %
1)
b00100010001000100010001000100010 *
b00110011001100110011001100110011 +
b00100010001000100010001000100010 -
b00010001000100010001000100010001 .
b00110011001100110011001100110011 /
b00110011001100110011001100110011 0
05
b10 8
19
b00100010001000100010001000100010 <
1?
b00110011001100110011001100110011 B
b00010001000100010001000100010001 C
b00010001000100010001000100010001 D
b00100010001000100010001000100010 E
b00010001000100010001000100010001 F
b00110011001100110011001100110011 H
b110011001100110011001100110011 I
b1110110010101000011001000010 J
b00110011001100110011001100110011 K
b00001110110010101000011001000010 L
1N
b00110011001100110011001100110011 P
#14500000
0!
0)
09
0?
0N
#15000000
1!
b00110011001100110011001100110011 $
b01100110011001100110011001100110 %
1)
b00110011001100110011001100110011 *
b01100110011001100110011001100110 +
b00110011001100110011001100110011 -
b00110011001100110011001100110011 .
b01100110011001100110011001100110 /
b01100110011001100110011001100110 0
b11 8
19
b00110011001100110011001100110011 <
1?
b01100110011001100110011001100110 B
b00110011001100110011001100110011 C
b00110011001100110011001100110011 D
b00110011001100110011001100110011 E
b00110011001100110011001100110011 F
b01100110011001100110011001100110 H
b1100110011001100110011001100110 I
b11000010100011110101110000101001 J
b01100110011001100110011001100110 K
b11000010100011110101110000101001 L
1N
b01100110011001100110011001100110 P
#15500000
0!
0)
09
0?
0N
#16000000
1!
b00000000000000000000000000000000 $
1)
b00000000000000000000000000000000 *
b00000000000000000000000000000000 -
b01100110011001100110011001100110 .
b100 8
19
b00000000000000000000000000000000 <
1?
b01100110011001100110011001100110 C
b01100110011001100110011001100110 D
b00000000000000000000000000000000 E
b01100110011001100110011001100110 F
b0 J
b00000000000000000000000000000000 L
1N
#16500000
0!
0)
09
0?
0N
#17000000
1!
b00010001000100010001000100010001 $
b01110111011101110111011101110111 %
1)
b00010001000100010001000100010001 *
b01110111011101110111011101110111 +
b00010001000100010001000100010001 -
b01110111011101110111011101110111 /
b01110111011101110111011101110111 0
b101 8
19
b00010001000100010001000100010001 <
1?
b01110111011101110111011101110111 B
b00010001000100010001000100010001 E
b01110111011101110111011101110111 H
b1110111011101110111011101110111 I
b101100010111111001001011000110 J
b01110111011101110111011101110111 K
b00101100010111111001001011000110 L
1N
b01110111011101110111011101110111 P
#17500000
0!
0)
09
0?
0N
#18000000
1!
b00000000000000000000000000000000 $
1)
b00000000000000000000000000000000 *
b00000000000000000000000000000000 -
b01110111011101110111011101110111 .
b110 8
19
b00000000000000000000000000000000 <
1?
b01110111011101110111011101110111 C
b01110111011101110111011101110111 D
b00000000000000000000000000000000 E
b01110111011101110111011101110111 F
b0 J
b00000000000000000000000000000000 L
1N
#18500000
0!
0)
09
0?
0N
#19000000
1!
b00010001000100010001000100010001 $
b10001000100010001000100010001000 %
1)
b00010001000100010001000100010001 *
b10001000100010001000100010001000 +
b00010001000100010001000100010001 -
b10001000100010001000100010001000 /
b10001000100010001000100010001000 0
b111 8
19
b00010001000100010001000100010001 <
1?
b10001000100010001000100010001000 B
b00010001000100010001000100010001 E
b10001000100010001000100010001000 H
b10001000100010001000100010001000 I
b10110011110001001101010111100111 J
b10001000100010001000100010001000 K
b10110011110001001101010111100111 L
1N
b10001000100010001000100010001000 P
#19500000
0!
0)
09
0?
0N
#20000000
1!
1#
b10011001100110011001100110011001 %
b10011001100110011001100110011001 &
1)
b10011001100110011001100110011001 +
1,
b10001000100010001000100010001000 .
b10011001100110011001100110011001 /
b10011001100110011001100110011001 0
03
b1000 8
19
1?
0A
b10011001100110011001100110011001 B
b10001000100010001000100010001000 C
b10001000100010001000100010001000 D
b10001000100010001000100010001000 F
b10011001100110011001100110011001 H
b10011001100110011001100110011001 I
b111011001010100001100100001000 J
b10011001100110011001100110011001 K
b00111011001010100001100100001000 L
1N
1O
b10011001100110011001100110011001 P
#20500000
0!
0)
09
0?
0N
#21000000
1!
0#
b11111111111111111111111111111111 $
b10001000100010001000100010000111 %
b00000000000000000000000000000000 &
1)
b11111111111111111111111111111111 *
b10001000100010001000100010000111 +
0,
b11111111111111111111111111111111 -
b10001000100010001000100010000111 /
b10001000100010001000100010000111 0
04
16
b0 8
19
0;
b11111111111111111111111111111111 <
1?
b10001000100010001000100010000111 B
b11111111111111111111111111111111 E
b10001000100010001000100010000111 H
b10001000100010001000100010000111 I
b1110111011101110111011101111000 J
b10001000100010001000100010000111 K
b01110111011101110111011101111000 L
1N
0O
b10001000100010001000100010000111 P
#21500000
0!
0)
09
0?
0N
#22000000
1!
b00000000000000000000000000000010 $
b10001000100010001000100010001010 %
1)
b00000000000000000000000000000010 *
b10001000100010001000100010001010 +
b00000000000000000000000000000010 -
b10001000100010001000100010001010 /
b10001000100010001000100010001010 0
14
06
19
1;
b00000000000000000000000000000010 <
1?
b10001000100010001000100010001010 B
b00000000000000000000000000000010 E
b10001000100010001000100010001010 H
b10001000100010001000100010001010 I
b10001000100010001000100010000 J
b10001000100010001000100010001010 K
b00010001000100010001000100010000 L
1N
b10001000100010001000100010001010 P
#22500000
0!
0)
09
0?
0N
#23000000
1!
b00010001000100010000000000000000 $
b10011001100110011000100010001000 %
1)
b00010001000100010000000000000000 *
b10011001100110011000100010001000 +
b00010001000100010000000000000000 -
b10011001100110011000100010001000 /
b00010001000100010000000000000000 0
b00000000000000000000000000000010 1
b010 2
13
04
15
b1 8
19
0;
b00010001000100010000000000000000 <
b00000000000000000000000000000010 =
b00000000000000000000000000000010 >
1?
1A
b00010001000100010000000000000000 B
b00010001000100010000000000000000 E
b010 G
b10011001100110011000100010001000 H
b10011001100110011000100010001000 I
b11001000010000000000000000000 J
b10011001100110011000100010001000 K
b00011001000010000000000000000000 L
1N
b10011001100110011000100010001000 P
#23500000
0!
0)
09
0?
0N
#24000000
1!
b00100010001000100000000000000000 $
b00110011001100110000000000000000 %
1)
b00100010001000100000000000000000 *
b00110011001100110000000000000000 +
b00100010001000100000000000000000 -
b00010001000100010000000000000000 .
b00110011001100110000000000000000 /
b00110011001100110000000000000000 0
05
b10 8
19
b00100010001000100000000000000000 <
1?
b00110011001100110000000000000000 B
b00010001000100010000000000000000 C
b00010001000100010000000000000000 D
b00100010001000100000000000000000 E
b00010001000100010000000000000000 F
b00110011001100110000000000000000 H
b110011001100110000000000000000 I
b0 J
b00110011001100110000000000000000 K
b00000000000000000000000000000000 L
1N
b00110011001100110000000000000000 P
#24500000
0!
0)
09
0?
0N
#25000000
1!
b01000100010001000000000000000000 $
b01110111011101110000000000000000 %
1)
b01000100010001000000000000000000 *
b01110111011101110000000000000000 +
b01000100010001000000000000000000 -
b00110011001100110000000000000000 .
b01110111011101110000000000000000 /
b01110111011101110000000000000000 0
b11 8
19
b01000100010001000000000000000000 <
1?
b01110111011101110000000000000000 B
b00110011001100110000000000000000 C
b00110011001100110000000000000000 D
b01000100010001000000000000000000 E
b00110011001100110000000000000000 F
b01110111011101110000000000000000 H
b1110111011101110000000000000000 I
b01110111011101110000000000000000 K
1N
b01110111011101110000000000000000 P
#25500000
0!
0)
09
0?
0N
#26000000
1!
b10001000100010000000000000000000 $
b11111111111111110000000000000000 %
1)
b10001000100010000000000000000000 *
b11111111111111110000000000000000 +
b10001000100010000000000000000000 -
b01110111011101110000000000000000 .
b11111111111111110000000000000000 /
b11111111111111110000000000000000 0
b100 8
19
b10001000100010000000000000000000 <
1?
b11111111111111110000000000000000 B
b01110111011101110000000000000000 C
b01110111011101110000000000000000 D
b10001000100010000000000000000000 E
b01110111011101110000000000000000 F
b11111111111111110000000000000000 H
b11111111111111110000000000000000 I
b11111111111111110000000000000000 K
1N
b11111111111111110000000000000000 P
#26500000
0!
0)
09
0?
0N
#27000000
1!
b00000000000000000001000100010001 $
b11111111111111110001000100010001 %
1)
b00000000000000000001000100010001 *
b11111111111111110001000100010001 +
b00000000000000000001000100010001 -
b11111111111111110000000000000000 .
b11111111111111110001000100010001 /
b11111111111111110001000100010001 0
b101 8
19
b00000000000000000001000100010001 <
1?
b11111111111111110001000100010001 B
b11111111111111110000000000000000 C
b11111111111111110000000000000000 D
b00000000000000000001000100010001 E
b11111111111111110000000000000000 F
b11111111111111110001000100010001 H
b11111111111111110001000100010001 I
b11101110111011110000000000000000 J
b11111111111111110001000100010001 K
b11101110111011110000000000000000 L
1N
b11111111111111110001000100010001 P
#27500000
0!
0)
09
0?
0N
#28000000
1!
b00000000000000000010001000100010 $
b11111111111111110011001100110011 %
1)
b00000000000000000010001000100010 *
b11111111111111110011001100110011 +
b00000000000000000010001000100010 -
b11111111111111110001000100010001 .
b11111111111111110011001100110011 /
b11111111111111110011001100110011 0
b110 8
19
b00000000000000000010001000100010 <
1?
b11111111111111110011001100110011 B
b11111111111111110001000100010001 C
b11111111111111110001000100010001 D
b00000000000000000010001000100010 E
b11111111111111110001000100010001 F
b11111111111111110011001100110011 H
b11111111111111110011001100110011 I
b11100000001001001000011001000010 J
b11111111111111110011001100110011 K
b11100000001001001000011001000010 L
1N
b11111111111111110011001100110011 P
#28500000
0!
0)
09
0?
0N
#29000000
1!
b00000000000000000100010001000100 $
b11111111111111110111011101110111 %
1)
b00000000000000000100010001000100 *
b11111111111111110111011101110111 +
b00000000000000000100010001000100 -
b11111111111111110011001100110011 .
b11111111111111110111011101110111 /
b11111111111111110111011101110111 0
b111 8
19
b00000000000000000100010001000100 <
1?
b11111111111111110111011101110111 B
b11111111111111110011001100110011 C
b11111111111111110011001100110011 D
b00000000000000000100010001000100 E
b11111111111111110011001100110011 F
b11111111111111110111011101110111 H
b11111111111111110111011101110111 I
b11001001011000110010010110001100 J
b11111111111111110111011101110111 K
b11001001011000110010010110001100 L
1N
b11111111111111110111011101110111 P
#29500000
0!
0)
09
0?
0N
#30000000
1!
1#
b00000000000000001000100010001000 $
b11111111111111111111111111111111 %
b11111111111111111111111111111111 &
1)
b00000000000000001000100010001000 *
b11111111111111111111111111111111 +
1,
b00000000000000001000100010001000 -
b11111111111111110111011101110111 .
b11111111111111111111111111111111 /
b11111111111111111111111111111111 0
03
b1000 8
19
b00000000000000001000100010001000 <
1?
0A
b11111111111111111111111111111111 B
b11111111111111110111011101110111 C
b11111111111111110111011101110111 D
b00000000000000001000100010001000 E
b11111111111111110111011101110111 F
b11111111111111111111111111111111 H
b11111111111111111111111111111111 I
b10110111001011101010111100111000 J
b11111111111111111111111111111111 K
b10110111001011101010111100111000 L
1N
1O
b11111111111111111111111111111111 P
#30500000
0!
0)
09
0?
0N
#31000000
1!
0#
b11111111111111111111111111111111 $
b00000000000000000000000000000000 &
1)
b11111111111111111111111111111111 *
0,
b11111111111111111111111111111111 -
04
16
b0 8
19
0;
b11111111111111111111111111111111 <
1?
b11111111111111111111111111111111 E
b11111111111111110111011101110110 I
b1000100010001001 J
b11111111111111110111011101110110 K
b00000000000000001000100010001001 L
1N
0O
#31500000
0!
0)
09
0?
0N
#32000000
1!
1)
19
1?
1N
#32500000
0!
0)
09
0?
0N
#33000000
1!
b00000000000000000000000000000001 $
b11111111111111110111011101110111 %
1)
b00000000000000000000000000000001 *
b11111111111111110111011101110111 +
b00000000000000000000000000000001 -
b11111111111111110111011101110111 /
b11111111111111110111011101110111 0
14
06
19
1;
b00000000000000000000000000000001 <
1?
b11111111111111110111011101110111 B
b00000000000000000000000000000001 E
b11111111111111110111011101110111 H
b11111111111111110111011101111000 I
b11111111111111110111011101110111 J
b11111111111111110111011101111000 K
b11111111111111110111011101110111 L
1N
b11111111111111110111011101110111 P
#33500000
0!
0)
09
0?
0N
#34000000
1!
b11111111111111110111011101110111 $
1)
b11111111111111110111011101110111 *
b11111111111111110111011101110111 -
b00000000000000000000000000000001 1
b001 2
13
04
15
b1 8
19
0;
b11111111111111110111011101110111 <
b00000000000000000000000000000001 =
b00000000000000000000000000000001 >
1?
1A
b11111111111111110111011101110111 E
b001 G
b11111111111111101110111011101110 I
b1001000110100011101100101010001 J
b11111111111111101110111011101110 K
b01001000110100011101100101010001 L
1N
#34500000
0!
0)
09
0?
0N
#35000000
1!
b11111111111111110011001100110011 $
b11111111111111110011001100110011 %
1)
b11111111111111110011001100110011 *
b11111111111111110011001100110011 +
b11111111111111110011001100110011 -
b11111111111111110011001100110011 /
b11111111111111110011001100110011 0
05
b10 8
19
b11111111111111110011001100110011 <
1?
b11111111111111110011001100110011 B
b11111111111111110011001100110011 E
b11111111111111110011001100110011 H
b11111111111111101010101010101010 I
b1101101001110101000000110110101 J
b11111111111111101010101010101010 K
b01101101001110101000000110110101 L
1N
b11111111111111110011001100110011 P
#35500000
0!
0)
09
0?
0N
#36000000
1!
b11111111111111110001000100010001 $
b11111111111111110001000100010001 %
1)
b11111111111111110001000100010001 *
b11111111111111110001000100010001 +
b11111111111111110001000100010001 -
b11111111111111110011001100110011 .
b11111111111111110001000100010001 /
b11111111111111110001000100010001 0
b11 8
19
b11111111111111110001000100010001 <
1?
b11111111111111110001000100010001 B
b11111111111111110011001100110011 C
b11111111111111110011001100110011 D
b11111111111111110001000100010001 E
b11111111111111110011001100110011 F
b11111111111111110001000100010001 H
b11111111111111100100010001000100 I
b10111111001001011100100101100011 J
b11111111111111100100010001000100 K
b10111111001001011100100101100011 L
1N
b11111111111111110001000100010001 P
#36500000
0!
0)
09
0?
0N
#37000000
1!
b11111111111111110101010101010101 $
1)
b11111111111111110101010101010101 *
b11111111111111110101010101010101 -
b11111111111111110001000100010001 .
b100 8
19
b11111111111111110101010101010101 <
1?
b11111111111111110001000100010001 C
b11111111111111110001000100010001 D
b11111111111111110101010101010101 E
b11111111111111110001000100010001 F
b11111111111111100110011001100110 I
b10011111010010100100111110100101 J
b11111111111111100110011001100110 K
b10011111010010100100111110100101 L
1N
#37500000
0!
0)
09
0?
0N
#38000000
1!
b11111111111111111111111111111111 $
1)
b11111111111111111111111111111111 *
b11111111111111111111111111111111 -
16
b101 8
19
b11111111111111111111111111111111 <
1?
b11111111111111111111111111111111 E
b11111111111111110001000100010000 I
b1110111011101111 J
b11111111111111110001000100010000 K
b00000000000000001110111011101111 L
1N
#38500000
0!
0)
09
0?
0N
#39000000
1!
b10101010101010100101010101010101 $
b10101010101010100001000100010001 %
1)
b10101010101010100101010101010101 *
b10101010101010100001000100010001 +
b10101010101010100101010101010101 -
b10101010101010100001000100010001 /
b10101010101010100001000100010001 0
06
b110 8
19
b10101010101010100101010101010101 <
1?
b10101010101010100001000100010001 B
b10101010101010100101010101010101 E
b10101010101010100001000100010001 H
b10101010101010010110011001100110 I
b1001111101001010100111110100101 J
b10101010101010010110011001100110 K
b01001111101001010100111110100101 L
1N
b10101010101010100001000100010001 P
#39500000
0!
0)
09
0?
0N
#40000000
1!
b01010101010101011111111111111111 $
b00000000000000000001000100010001 %
1)
b01010101010101011111111111111111 *
b00000000000000000001000100010001 +
b01010101010101011111111111111111 -
b10101010101010100001000100010001 .
b00000000000000000001000100010001 /
b00000000000000000001000100010001 0
b111 8
19
b01010101010101011111111111111111 <
1?
b00000000000000000001000100010001 B
b10101010101010100001000100010001 C
b10101010101010100001000100010001 D
b01010101010101011111111111111111 E
b10101010101010100001000100010001 F
b00000000000000000001000100010001 H
b1000100010000 I
b10110110000010111110111011101111 J
b00000000000000000001000100010000 K
b10110110000010111110111011101111 L
1N
b00000000000000000001000100010001 P
#40500000
0!
0)
09
0?
0N
#41000000
1!
1#
b00010001000100011111111111111111 $
b00000000000000000001000100010001 &
1)
b00010001000100011111111111111111 *
1,
b00010001000100011111111111111111 -
b00000000000000000001000100010001 .
03
b1000 8
19
b00010001000100011111111111111111 <
1?
0A
b00000000000000000001000100010001 C
b00000000000000000001000100010001 D
b00010001000100011111111111111111 E
b00000000000000000001000100010001 F
b10001000100100001000100010000 I
b1010100001100011110111011101111 J
b00010001000100100001000100010000 K
b01010100001100011110111011101111 L
1N
1O
#41500000
0!
0)
09
0?
0N
#42000000
1!
0#
b11111111111111111111111111111111 $
b00000000000000000000000000000000 &
1)
b11111111111111111111111111111111 *
0,
b11111111111111111111111111111111 -
04
16
b0 8
19
0;
b11111111111111111111111111111111 <
1?
b11111111111111111111111111111111 E
b1000100010000 I
b11111111111111111110111011101111 J
b00000000000000000001000100010000 K
b11111111111111111110111011101111 L
1N
0O
#42500000
0!
0)
09
0?
0N
#43000000
1!
1)
19
1?
1N
#43500000
0!
0)
09
0?
0N
#44000000
1!
1)
19
1?
1N
#44500000
0!
0)
09
0?
0N
#45000000
1!
b00000000000000000000000000000000 $
b00000000000000000000000000000000 %
1)
b00000000000000000000000000000000 *
b00000000000000000000000000000000 +
b00000000000000000000000000000000 -
b00000000000000000000000000000000 /
b00000000000000000000000000000000 0
14
06
19
1;
b00000000000000000000000000000000 <
1?
b00000000000000000000000000000000 B
b00000000000000000000000000000000 E
b00000000000000000000000000000000 H
b1000100010001 I
b0 J
b00000000000000000001000100010001 K
b00000000000000000000000000000000 L
1N
b00000000000000000000000000000000 P
#45500000
0!
0)
09
0?
0N
#46000000
1!
b00000000000000001111111111111111 $
b00000000000000001110111011101110 %
1)
b00000000000000001111111111111111 *
b00000000000000001110111011101110 +
b00000000000000001111111111111111 -
b00000000000000001110111011101110 /
b00000000000000001111111111111111 0
b00000000000000000000000000000000 1
b000 2
13
04
15
b1 8
19
0;
b00000000000000001111111111111111 <
b00000000000000000000000000000000 =
b00000000000000000000000000000000 >
1?
1A
b00000000000000001111111111111111 B
b00000000000000001111111111111111 E
b000 G
b00000000000000001110111011101110 H
b10001000100010000 I
b10001000100001110111011101111 J
b00000000000000010001000100010000 K
b00010001000100001110111011101111 L
1N
b00000000000000001110111011101110 P
#46500000
0!
0)
09
0?
0N
#47000000
1!
b00000000000000000101010101010101 $
b00000000000000001010101010101010 %
1)
b00000000000000000101010101010101 *
b00000000000000001010101010101010 +
b00000000000000000101010101010101 -
b00000000000000001111111111111111 .
b00000000000000001010101010101010 /
b00000000000000001010101010101010 0
05
b10 8
19
b00000000000000000101010101010101 <
1?
b00000000000000001010101010101010 B
b00000000000000001111111111111111 C
b00000000000000001111111111111111 D
b00000000000000000101010101010101 E
b00000000000000001111111111111111 F
b00000000000000001010101010101010 H
b10101010101010100 I
b1010101010101001010101010101011 J
b00000000000000010101010101010100 K
b01010101010101001010101010101011 L
1N
b00000000000000001010101010101010 P
#47500000
0!
0)
09
0?
0N
#48000000
1!
b00000000000000001010101010101010 $
b00000000000000000000000000000000 %
1)
b00000000000000001010101010101010 *
b00000000000000000000000000000000 +
b00000000000000001010101010101010 -
b00000000000000001010101010101010 .
b00000000000000000000000000000000 /
b00000000000000000000000000000000 0
b11 8
19
b00000000000000001010101010101010 <
1?
b00000000000000000000000000000000 B
b00000000000000001010101010101010 C
b00000000000000001010101010101010 D
b00000000000000001010101010101010 E
b00000000000000001010101010101010 F
b00000000000000000000000000000000 H
b1110001110001100011100011100100 J
b01110001110001100011100011100100 L
1N
b00000000000000000000000000000000 P
#48500000
0!
0)
09
0?
0N
